/Users/flavioalmeida/Downloads/testeJavaCep/src/main/java/br/com/teste/Model/DTOs/MessageResponseDTO.java
/Users/flavioalmeida/Downloads/testeJavaCep/src/main/java/br/com/teste/Repository/ZipCodeRepository.java
/Users/flavioalmeida/Downloads/testeJavaCep/src/main/java/br/com/teste/Config/SwaggerConfig.java
/Users/flavioalmeida/Downloads/testeJavaCep/src/main/java/br/com/teste/Model/Entity/ZipCodeEntity.java
/Users/flavioalmeida/Downloads/testeJavaCep/src/main/java/br/com/teste/Model/DTOs/ZipCodeDTO.java
/Users/flavioalmeida/Downloads/testeJavaCep/src/main/java/br/com/teste/Util/CorreiosService.java
/Users/flavioalmeida/Downloads/testeJavaCep/src/main/java/br/com/teste/Config/RestTemplateConfig.java
/Users/flavioalmeida/Downloads/testeJavaCep/src/main/java/br/com/teste/Service/ZipCodeService.java
/Users/flavioalmeida/Downloads/testeJavaCep/src/main/java/br/com/teste/Util/RestTemplateProperties.java
/Users/flavioalmeida/Downloads/testeJavaCep/src/main/java/br/com/teste/TesteJavaCepApplication.java
/Users/flavioalmeida/Downloads/testeJavaCep/src/main/java/br/com/teste/Controller/ZipCodeController.java
/Users/flavioalmeida/Downloads/testeJavaCep/src/main/java/br/com/teste/Util/ValidatorCep.java
